{
  "project_info": {
    "project_number": "264512659845",
    "firebase_url": "https://video-player-27fcc.firebaseio.com",
    "project_id": "video-player-27fcc",
    "storage_bucket": "video-player-27fcc.appspot.com"
  },
  "client": [
    {
      "client_info": {
        "mobilesdk_app_id": "1:264512659845:android:d70f85a9fe8a4659",
        "android_client_info": {
          "package_name": "com.niranjan.videoplayer"
        }
      },
      "oauth_client": [
        {
          "client_id": "264512659845-4niqi483vcs418vnreb66bjlprvil387.apps.googleusercontent.com",
          "client_type": 1,
          "android_info": {
            "package_name": "com.niranjan.videoplayer",
            "certificate_hash": "7dc69516244bead5773058d5643254a204492940"
          }
        },
        {
          "client_id": "264512659845-g4qgl99vd5eovp3urlp4uaiman169sfd.apps.googleusercontent.com",
          "client_type": 3
        }
      ],
      "api_key": [
        {
          "current_key": "AIzaSyAgfuWYpyph3vAHXOw9wAGulRNx61pJZP4"
        }
      ],
      "services": {
        "analytics_service": {
          "status": 1
        },
        "appinvite_service": {
          "status": 2,
          "other_platform_oauth_client": [
            {
              "client_id": "264512659845-g4qgl99vd5eovp3urlp4uaiman169sfd.apps.googleusercontent.com",
              "client_type": 3
            }
          ]
        },
        "ads_service": {
          "status": 2
        }
      }
    }
  ],
  "configuration_version": "1"
}